…
``` r
city_homi = homi_df %>%
  group_by(city_state) %>%
  summarise(
    Unsolved_Homicides = sum(disposition == "unsolved"),
    Total_Murders = n())


city_homi
```

    ## # A tibble: 50 × 3
    ##    city_state     Unsolved_Homicides Total_Murders
    ##    <chr>                       <int>         <int>
    ##  1 Albuquerque,NM                146           378
    ##  2 Atlanta,GA                    373           973
    ##  3 Baltimore,MD                 1825          2827
    ##  4 Baton Rouge,LA                196           424
    ##  5 Birmingham,AL                 347           800
    ##  6 Boston,MA                     310           614
    ##  7 Buffalo,NY                    319           521
    ##  8 Charlotte,NC                  206           687
    ##  9 Chicago,IL                   4073          5535
    ## 10 Cincinnati,OH                 309           694
    ## # … with 40 more rows
…
``` r
city_df = city_homi %>%
  mutate(
    pc_test = map2(.x = Unsolved_Homicides, .y = Total_Murders, ~prop.test(x = .x, n = .y)),
    tt_test = map(.x = pc_test, ~broom::tidy(.x))
  ) %>%
  select(-pc_test) %>%
  unnest(tt_test) %>%
  select(city_state, estimate, conf.high, conf.low)

city_df
```

    ## # A tibble: 50 × 4
    ##    city_state     estimate conf.high conf.low
    ##    <chr>             <dbl>     <dbl>    <dbl>
    ##  1 Albuquerque,NM    0.386     0.438    0.337
    ##  2 Atlanta,GA        0.383     0.415    0.353
    ##  3 Baltimore,MD      0.646     0.663    0.628
    ##  4 Baton Rouge,LA    0.462     0.511    0.414
    ##  5 Birmingham,AL     0.434     0.469    0.399
    ##  6 Boston,MA         0.505     0.545    0.465
    ##  7 Buffalo,NY        0.612     0.654    0.569
    ##  8 Charlotte,NC      0.300     0.336    0.266
    ##  9 Chicago,IL        0.736     0.747    0.724
    ## 10 Cincinnati,OH     0.445     0.483    0.408
    ## # … with 40 more rows
…
